<!-- Savannah - Speech added about list creation -->
<!-- $Id: about_list_creation.txt 3094 2004-01-30 23:00:10Z yeupou $  BEGIN -->


<!-- $Id: about_list_creation.txt 3094 2004-01-30 23:00:10Z yeupou $  END -->
