<!-- Savannah - People index introduction if group is defined -->
<!-- $Id: index_group.txt 3786 2004-10-30 02:18:41Z sonicmctails $ BEGIN -->
<P>
Here is a list of positions available for this project.
<P>
<!-- $Id: index_group.txt 3786 2004-10-30 02:18:41Z sonicmctails $  END -->