<!-- Savannah - Project registration administration group type infos -->
<!-- $Id: groupedit_grouptype.txt 3094 2004-01-30 23:00:10Z yeupou $  BEGIN -->



<!-- $Id: groupedit_grouptype.txt 3094 2004-01-30 23:00:10Z yeupou $  BEGIN -->
