<!-- Savannah - User account modification page info about password-->
<!-- $Id: index_passwd.txt 3686 2004-09-22 08:11:52Z yeupou $  BEGIN -->
<!-- $Id: index_passwd.txt 3686 2004-09-22 08:11:52Z yeupou $  BEGIN -->
